Selección de atributos
…
datos <- read_xlsx('06 - datos1.xlsx') 
datos |> colnames() 

 [1] "X_A" "X_B" "X_C" "Y_A" "Y_B" "Y_C" "z1"  "Z2"  "z3"  "Z4"  "Z5" 

Criterio fijado por el investigador

Column

Función select

datos[,c(1,3)] # Selecciona las columnas 1 y 3 

# A tibble: 31 × 2
     X_A   X_C
   <dbl> <dbl>
 1    20    18
 2    17    11
 3    20    11
 4     4     3
 5    20     5
 6     7    20
 7    10    10
 8     8     7
 9    16    17
10     6     1
# ℹ 21 more rows

datos[,seq(2,8,3)] # Selecciona las columnas 2, 5, 8

# A tibble: 31 × 3
     X_B Y_B       Z2
   <dbl> <chr>  <dbl>
 1    10 NO    0.890 
 2    20 SI    0.403 
 3    20 NO    0.918 
 4    10 SI    0.334 
 5     8 SI    0.657 
 6    14 NO    0.454 
 7    14 NO    0.0263
 8    14 SI    0.128 
 9    17 SI    0.189 
10     9 NO    0.882 
# ℹ 21 more rows

datos |> dplyr::select(X_A) # Selecciona la columna X_A

# A tibble: 31 × 1
     X_A
   <dbl>
 1    20
 2    17
 3    20
 4     4
 5    20
 6     7
 7    10
 8     8
 9    16
10     6
# ℹ 21 more rows

datos |> dplyr::select(X_A:Y_A) # Selecciona las columnas X_A hasta Y_A

# A tibble: 31 × 4
     X_A   X_B   X_C Y_A  
   <dbl> <dbl> <dbl> <chr>
 1    20    10    18 SI   
 2    17    20    11 NO   
 3    20    20    11 SI   
 4     4    10     3 SI   
 5    20     8     5 SI   
 6     7    14    20 NO   
 7    10    14    10 SI   
 8     8    14     7 NO   
 9    16    17    17 SI   
10     6     9     1 SI   
# ℹ 21 more rows

datos |> dplyr::select(-(X_C:Y_B)) # Selecciona las columnas hasta X_B y de Y_C en adelante

# A tibble: 31 × 8
     X_A   X_B Y_C       z1     Z2    z3     Z4    Z5
   <dbl> <dbl> <chr>  <dbl>  <dbl> <dbl>  <dbl> <dbl>
 1    20    10 SI    0.478  0.890  0.806 0.579  0.995
 2    17    20 NO    0.561  0.403  0.802 0.0843 0.279
 3    20    20 SI    0.621  0.918  0.593 0.646  0.409
 4     4    10 NO    0.392  0.334  0.563 0.294  0.699
 5    20     8 SI    0.627  0.657  0.160 0.499  0.301
 6     7    14 SI    0.0808 0.454  0.185 0.713  0.766
 7    10    14 NO    0.557  0.0263 0.537 0.223  0.915
 8     8    14 SI    0.805  0.128  0.841 0.330  0.405
 9    16    17 SI    0.983  0.189  0.959 0.500  0.387
10     6     9 NO    0.906  0.882  0.238 0.562  0.729
# ℹ 21 more rows

datos |> dplyr::select(starts_with("X")) # Selecciona las columnas que comienzan por X

# A tibble: 31 × 3
     X_A   X_B   X_C
   <dbl> <dbl> <dbl>
 1    20    10    18
 2    17    20    11
 3    20    20    11
 4     4    10     3
 5    20     8     5
 6     7    14    20
 7    10    14    10
 8     8    14     7
 9    16    17    17
10     6     9     1
# ℹ 21 more rows

datos |> dplyr::select(starts_with(c("x","z"))) # Selecciona columnas que comienzan por x o z

# A tibble: 31 × 8
     X_A   X_B   X_C     z1     Z2    z3     Z4    Z5
   <dbl> <dbl> <dbl>  <dbl>  <dbl> <dbl>  <dbl> <dbl>
 1    20    10    18 0.478  0.890  0.806 0.579  0.995
 2    17    20    11 0.561  0.403  0.802 0.0843 0.279
 3    20    20    11 0.621  0.918  0.593 0.646  0.409
 4     4    10     3 0.392  0.334  0.563 0.294  0.699
 5    20     8     5 0.627  0.657  0.160 0.499  0.301
 6     7    14    20 0.0808 0.454  0.185 0.713  0.766
 7    10    14    10 0.557  0.0263 0.537 0.223  0.915
 8     8    14     7 0.805  0.128  0.841 0.330  0.405
 9    16    17    17 0.983  0.189  0.959 0.500  0.387
10     6     9     1 0.906  0.882  0.238 0.562  0.729
# ℹ 21 more rows

datos |> dplyr::select(ends_with("b")) # Selecciona columnas que terminan con b o B

# A tibble: 31 × 2
     X_B Y_B  
   <dbl> <chr>
 1    10 NO   
 2    20 SI   
 3    20 NO   
 4    10 SI   
 5     8 SI   
 6    14 NO   
 7    14 NO   
 8    14 SI   
 9    17 SI   
10     9 NO   
# ℹ 21 more rows

datos |> dplyr::select(!ends_with("a")) # Selecciona columnas que no terminan con a

# A tibble: 31 × 9
     X_B   X_C Y_B   Y_C       z1     Z2    z3     Z4    Z5
   <dbl> <dbl> <chr> <chr>  <dbl>  <dbl> <dbl>  <dbl> <dbl>
 1    10    18 NO    SI    0.478  0.890  0.806 0.579  0.995
 2    20    11 SI    NO    0.561  0.403  0.802 0.0843 0.279
 3    20    11 NO    SI    0.621  0.918  0.593 0.646  0.409
 4    10     3 SI    NO    0.392  0.334  0.563 0.294  0.699
 5     8     5 SI    SI    0.627  0.657  0.160 0.499  0.301
 6    14    20 NO    SI    0.0808 0.454  0.185 0.713  0.766
 7    14    10 NO    NO    0.557  0.0263 0.537 0.223  0.915
 8    14     7 SI    SI    0.805  0.128  0.841 0.330  0.405
 9    17    17 SI    SI    0.983  0.189  0.959 0.500  0.387
10     9     1 NO    NO    0.906  0.882  0.238 0.562  0.729
# ℹ 21 more rows

datos |> dplyr::select(starts_with("X") | ends_with("b")) # selecciona columnas que comienzan con X o terminan con b

# A tibble: 31 × 4
     X_A   X_B   X_C Y_B  
   <dbl> <dbl> <dbl> <chr>
 1    20    10    18 NO   
 2    17    20    11 SI   
 3    20    20    11 NO   
 4     4    10     3 SI   
 5    20     8     5 SI   
 6     7    14    20 NO   
 7    10    14    10 NO   
 8     8    14     7 SI   
 9    16    17    17 SI   
10     6     9     1 NO   
# ℹ 21 more rows

datos |> dplyr::select(starts_with("X") & ends_with("b")) # selecciona columnas que comienzan con X y terminan con b

# A tibble: 31 × 1
     X_B
   <dbl>
 1    10
 2    20
 3    20
 4    10
 5     8
 6    14
 7    14
 8    14
 9    17
10     9
# ℹ 21 more rows

datos |> dplyr::select(contains("_")) # Selecciona columnas que contengan _

# A tibble: 31 × 6
     X_A   X_B   X_C Y_A   Y_B   Y_C  
   <dbl> <dbl> <dbl> <chr> <chr> <chr>
 1    20    10    18 SI    NO    SI   
 2    17    20    11 NO    SI    NO   
 3    20    20    11 SI    NO    SI   
 4     4    10     3 SI    SI    NO   
 5    20     8     5 SI    SI    SI   
 6     7    14    20 NO    NO    SI   
 7    10    14    10 SI    NO    NO   
 8     8    14     7 NO    SI    SI   
 9    16    17    17 SI    SI    SI   
10     6     9     1 SI    NO    NO   
# ℹ 21 more rows

datos |> dplyr::select(everything()) # selecciona todas las columnas

# A tibble: 31 × 11
     X_A   X_B   X_C Y_A   Y_B   Y_C       z1     Z2    z3     Z4    Z5
   <dbl> <dbl> <dbl> <chr> <chr> <chr>  <dbl>  <dbl> <dbl>  <dbl> <dbl>
 1    20    10    18 SI    NO    SI    0.478  0.890  0.806 0.579  0.995
 2    17    20    11 NO    SI    NO    0.561  0.403  0.802 0.0843 0.279
 3    20    20    11 SI    NO    SI    0.621  0.918  0.593 0.646  0.409
 4     4    10     3 SI    SI    NO    0.392  0.334  0.563 0.294  0.699
 5    20     8     5 SI    SI    SI    0.627  0.657  0.160 0.499  0.301
 6     7    14    20 NO    NO    SI    0.0808 0.454  0.185 0.713  0.766
 7    10    14    10 SI    NO    NO    0.557  0.0263 0.537 0.223  0.915
 8     8    14     7 NO    SI    SI    0.805  0.128  0.841 0.330  0.405
 9    16    17    17 SI    SI    SI    0.983  0.189  0.959 0.500  0.387
10     6     9     1 SI    NO    NO    0.906  0.882  0.238 0.562  0.729
# ℹ 21 more rows

Column

Funciones derivadas de select

datos |> dplyr::select_all() # selecciona todas las columnas

# A tibble: 31 × 11
     X_A   X_B   X_C Y_A   Y_B   Y_C       z1     Z2    z3     Z4    Z5
   <dbl> <dbl> <dbl> <chr> <chr> <chr>  <dbl>  <dbl> <dbl>  <dbl> <dbl>
 1    20    10    18 SI    NO    SI    0.478  0.890  0.806 0.579  0.995
 2    17    20    11 NO    SI    NO    0.561  0.403  0.802 0.0843 0.279
 3    20    20    11 SI    NO    SI    0.621  0.918  0.593 0.646  0.409
 4     4    10     3 SI    SI    NO    0.392  0.334  0.563 0.294  0.699
 5    20     8     5 SI    SI    SI    0.627  0.657  0.160 0.499  0.301
 6     7    14    20 NO    NO    SI    0.0808 0.454  0.185 0.713  0.766
 7    10    14    10 SI    NO    NO    0.557  0.0263 0.537 0.223  0.915
 8     8    14     7 NO    SI    SI    0.805  0.128  0.841 0.330  0.405
 9    16    17    17 SI    SI    SI    0.983  0.189  0.959 0.500  0.387
10     6     9     1 SI    NO    NO    0.906  0.882  0.238 0.562  0.729
# ℹ 21 more rows

datos |> dplyr::select_if(is.numeric) # selecciona las columnas numéricas

# A tibble: 31 × 8
     X_A   X_B   X_C     z1     Z2    z3     Z4    Z5
   <dbl> <dbl> <dbl>  <dbl>  <dbl> <dbl>  <dbl> <dbl>
 1    20    10    18 0.478  0.890  0.806 0.579  0.995
 2    17    20    11 0.561  0.403  0.802 0.0843 0.279
 3    20    20    11 0.621  0.918  0.593 0.646  0.409
 4     4    10     3 0.392  0.334  0.563 0.294  0.699
 5    20     8     5 0.627  0.657  0.160 0.499  0.301
 6     7    14    20 0.0808 0.454  0.185 0.713  0.766
 7    10    14    10 0.557  0.0263 0.537 0.223  0.915
 8     8    14     7 0.805  0.128  0.841 0.330  0.405
 9    16    17    17 0.983  0.189  0.959 0.500  0.387
10     6     9     1 0.906  0.882  0.238 0.562  0.729
# ℹ 21 more rows

datos |> dplyr::select_if(is.integer) # selecciona las columnas de tipo entero

# A tibble: 31 × 0

datos |> dplyr::select_if(is.double) # selecciona las columnas de tipo double

# A tibble: 31 × 8
     X_A   X_B   X_C     z1     Z2    z3     Z4    Z5
   <dbl> <dbl> <dbl>  <dbl>  <dbl> <dbl>  <dbl> <dbl>
 1    20    10    18 0.478  0.890  0.806 0.579  0.995
 2    17    20    11 0.561  0.403  0.802 0.0843 0.279
 3    20    20    11 0.621  0.918  0.593 0.646  0.409
 4     4    10     3 0.392  0.334  0.563 0.294  0.699
 5    20     8     5 0.627  0.657  0.160 0.499  0.301
 6     7    14    20 0.0808 0.454  0.185 0.713  0.766
 7    10    14    10 0.557  0.0263 0.537 0.223  0.915
 8     8    14     7 0.805  0.128  0.841 0.330  0.405
 9    16    17    17 0.983  0.189  0.959 0.500  0.387
10     6     9     1 0.906  0.882  0.238 0.562  0.729
# ℹ 21 more rows

datos |> dplyr::select_if(is.character) # selecciona las columnas de tipo character

# A tibble: 31 × 3
   Y_A   Y_B   Y_C  
   <chr> <chr> <chr>
 1 SI    NO    SI   
 2 NO    SI    NO   
 3 SI    NO    SI   
 4 SI    SI    NO   
 5 SI    SI    SI   
 6 NO    NO    SI   
 7 SI    NO    NO   
 8 NO    SI    SI   
 9 SI    SI    SI   
10 SI    NO    NO   
# ℹ 21 more rows

datos |> dplyr::select_if(is.logical) # selecciona las columnas de tipo logico

# A tibble: 31 × 0

datos |> dplyr::select_at(vars(contains("X"),starts_with("Z")),tolower)

# A tibble: 31 × 8
     x_a   x_b   x_c     z1     z2    z3     z4    z5
   <dbl> <dbl> <dbl>  <dbl>  <dbl> <dbl>  <dbl> <dbl>
 1    20    10    18 0.478  0.890  0.806 0.579  0.995
 2    17    20    11 0.561  0.403  0.802 0.0843 0.279
 3    20    20    11 0.621  0.918  0.593 0.646  0.409
 4     4    10     3 0.392  0.334  0.563 0.294  0.699
 5    20     8     5 0.627  0.657  0.160 0.499  0.301
 6     7    14    20 0.0808 0.454  0.185 0.713  0.766
 7    10    14    10 0.557  0.0263 0.537 0.223  0.915
 8     8    14     7 0.805  0.128  0.841 0.330  0.405
 9    16    17    17 0.983  0.189  0.959 0.500  0.387
10     6     9     1 0.906  0.882  0.238 0.562  0.729
# ℹ 21 more rows

datos |> dplyr::select_at(vars(contains("Z"),starts_with("X")),toupper) 

# A tibble: 31 × 8
       Z1     Z2    Z3     Z4    Z5   X_A   X_B   X_C
    <dbl>  <dbl> <dbl>  <dbl> <dbl> <dbl> <dbl> <dbl>
 1 0.478  0.890  0.806 0.579  0.995    20    10    18
 2 0.561  0.403  0.802 0.0843 0.279    17    20    11
 3 0.621  0.918  0.593 0.646  0.409    20    20    11
 4 0.392  0.334  0.563 0.294  0.699     4    10     3
 5 0.627  0.657  0.160 0.499  0.301    20     8     5
 6 0.0808 0.454  0.185 0.713  0.766     7    14    20
 7 0.557  0.0263 0.537 0.223  0.915    10    14    10
 8 0.805  0.128  0.841 0.330  0.405     8    14     7
 9 0.983  0.189  0.959 0.500  0.387    16    17    17
10 0.906  0.882  0.238 0.562  0.729     6     9     1
# ℹ 21 more rows
…
